<svg width="20" height="20" viewBox="0 0 20 20" fill="none" xmlns="http://www.w3.org/2000/svg">
<mask id="path-1-outside-1" maskUnits="userSpaceOnUse" x="-0.00188446" y="0" width="20" height="20" fill="black">
<rect fill="white" x="-0.00188446" width="20" height="20"/>
<path d="M16.5568 10.4554H9.54274V3.44131C9.54274 3.15788 9.31599 2.93113 9.03256 2.93113C4.60341 2.93113 0.998116 6.53642 0.998116 10.9656C0.998116 15.3947 4.60341 19 9.03256 19C13.4617 19 17.067 15.3947 17.067 10.9656C17.067 10.6859 16.8365 10.4554 16.5568 10.4554ZM9.03256 17.9796C5.1665 17.9796 2.01848 14.8316 2.01848 10.9656C2.01848 7.26957 4.89062 4.23115 8.52237 3.97039V10.9656C8.52237 11.249 8.74912 11.4757 9.03256 11.4757H16.0277C15.767 15.1075 12.7285 17.9796 9.03256 17.9796Z"/>
<path d="M18.9943 9.00798C18.9868 7.05795 18.2725 5.17972 16.9838 3.7172C15.4571 1.99013 13.2652 1 10.9599 1C10.6765 1 10.4497 1.22675 10.4497 1.51018V9.03443C10.4497 9.31787 10.6765 9.54461 10.9599 9.54461H18.4842C18.7676 9.54461 18.9943 9.31787 18.9943 9.03443C18.9943 9.02687 18.9943 9.01931 18.9943 9.00798ZM11.4701 8.52803V2.04304C13.2916 2.17531 14.9998 3.01806 16.2167 4.39744C17.237 5.55007 17.8417 7.00126 17.9551 8.52803H11.4701Z"/>
</mask>
<path d="M16.5568 10.4554H9.54274V3.44131C9.54274 3.15788 9.31599 2.93113 9.03256 2.93113C4.60341 2.93113 0.998116 6.53642 0.998116 10.9656C0.998116 15.3947 4.60341 19 9.03256 19C13.4617 19 17.067 15.3947 17.067 10.9656C17.067 10.6859 16.8365 10.4554 16.5568 10.4554ZM9.03256 17.9796C5.1665 17.9796 2.01848 14.8316 2.01848 10.9656C2.01848 7.26957 4.89062 4.23115 8.52237 3.97039V10.9656C8.52237 11.249 8.74912 11.4757 9.03256 11.4757H16.0277C15.767 15.1075 12.7285 17.9796 9.03256 17.9796Z" fill="white"/>
<path d="M18.9943 9.00798C18.9868 7.05795 18.2725 5.17972 16.9838 3.7172C15.4571 1.99013 13.2652 1 10.9599 1C10.6765 1 10.4497 1.22675 10.4497 1.51018V9.03443C10.4497 9.31787 10.6765 9.54461 10.9599 9.54461H18.4842C18.7676 9.54461 18.9943 9.31787 18.9943 9.03443C18.9943 9.02687 18.9943 9.01931 18.9943 9.00798ZM11.4701 8.52803V2.04304C13.2916 2.17531 14.9998 3.01806 16.2167 4.39744C17.237 5.55007 17.8417 7.00126 17.9551 8.52803H11.4701Z" fill="white"/>
<path d="M9.54274 10.4554H9.34274V10.6554H9.54274V10.4554ZM8.52237 3.97039H8.72237V3.75551L8.50805 3.7709L8.52237 3.97039ZM16.0277 11.4757L16.2272 11.4901L16.2426 11.2757H16.0277V11.4757ZM18.9943 9.00798H19.1943L19.1943 9.0072L18.9943 9.00798ZM16.9838 3.7172L17.1339 3.58497L17.1337 3.58473L16.9838 3.7172ZM11.4701 8.52803H11.2701V8.72803H11.4701V8.52803ZM11.4701 2.04304L11.4846 1.84357L11.2701 1.82799V2.04304H11.4701ZM16.2167 4.39744L16.0667 4.52975L16.0669 4.53001L16.2167 4.39744ZM17.9551 8.52803V8.72803H18.1705L18.1545 8.51322L17.9551 8.52803ZM16.5568 10.2554H9.54274V10.6554H16.5568V10.2554ZM9.74274 10.4554V3.44131H9.34274V10.4554H9.74274ZM9.74274 3.44131C9.74274 3.04742 9.42645 2.73113 9.03256 2.73113V3.13113C9.20553 3.13113 9.34274 3.26833 9.34274 3.44131H9.74274ZM9.03256 2.73113C4.49295 2.73113 0.798116 6.42596 0.798116 10.9656H1.19812C1.19812 6.64688 4.71387 3.13113 9.03256 3.13113V2.73113ZM0.798116 10.9656C0.798116 15.5052 4.49295 19.2 9.03256 19.2V18.8C4.71387 18.8 1.19812 15.2842 1.19812 10.9656H0.798116ZM9.03256 19.2C13.5722 19.2 17.267 15.5052 17.267 10.9656H16.867C16.867 15.2842 13.3512 18.8 9.03256 18.8V19.2ZM17.267 10.9656C17.267 10.5754 16.9469 10.2554 16.5568 10.2554V10.6554C16.726 10.6554 16.867 10.7964 16.867 10.9656H17.267ZM9.03256 17.7796C5.27696 17.7796 2.21848 14.7212 2.21848 10.9656H1.81848C1.81848 14.9421 5.05604 18.1796 9.03256 18.1796V17.7796ZM2.21848 10.9656C2.21848 7.37519 5.00886 4.42317 8.5367 4.16988L8.50805 3.7709C4.77239 4.03912 1.81848 7.16395 1.81848 10.9656H2.21848ZM8.32237 3.97039V10.9656H8.72237V3.97039H8.32237ZM8.32237 10.9656C8.32237 11.3595 8.63866 11.6757 9.03256 11.6757V11.2757C8.85958 11.2757 8.72237 11.1385 8.72237 10.9656H8.32237ZM9.03256 11.6757H16.0277V11.2757H9.03256V11.6757ZM15.8282 11.4614C15.5749 14.9893 12.6229 17.7796 9.03256 17.7796V18.1796C12.8342 18.1796 15.959 15.2257 16.2272 11.4901L15.8282 11.4614ZM19.1943 9.0072C19.1866 7.00872 18.4546 5.0838 17.1339 3.58497L16.8338 3.84942C18.0905 5.27564 18.787 7.10717 18.7943 9.00875L19.1943 9.0072ZM17.1337 3.58473C15.569 1.81482 13.3226 0.8 10.9599 0.8V1.2C13.2077 1.2 15.3451 2.16544 16.834 3.84966L17.1337 3.58473ZM10.9599 0.8C10.566 0.8 10.2497 1.11629 10.2497 1.51018H10.6497C10.6497 1.33721 10.7869 1.2 10.9599 1.2V0.8ZM10.2497 1.51018V9.03443H10.6497V1.51018H10.2497ZM10.2497 9.03443C10.2497 9.42832 10.566 9.74461 10.9599 9.74461V9.34461C10.7869 9.34461 10.6497 9.20741 10.6497 9.03443H10.2497ZM10.9599 9.74461H18.4842V9.34461H10.9599V9.74461ZM18.4842 9.74461C18.878 9.74461 19.1943 9.42832 19.1943 9.03443H18.7943C18.7943 9.20741 18.6571 9.34461 18.4842 9.34461V9.74461ZM19.1943 9.03443C19.1943 9.03442 19.1943 9.0344 19.1943 9.03439C19.1943 9.03437 19.1943 9.03436 19.1943 9.03434C19.1943 9.03433 19.1943 9.03431 19.1943 9.0343C19.1943 9.03428 19.1943 9.03427 19.1943 9.03426C19.1943 9.03424 19.1943 9.03423 19.1943 9.03421C19.1943 9.0342 19.1943 9.03418 19.1943 9.03417C19.1943 9.03415 19.1943 9.03414 19.1943 9.03412C19.1943 9.03411 19.1943 9.03409 19.1943 9.03408C19.1943 9.03406 19.1943 9.03405 19.1943 9.03403C19.1943 9.03402 19.1943 9.034 19.1943 9.03399C19.1943 9.03397 19.1943 9.03396 19.1943 9.03395C19.1943 9.03393 19.1943 9.03392 19.1943 9.0339C19.1943 9.03389 19.1943 9.03387 19.1943 9.03386C19.1943 9.03384 19.1943 9.03383 19.1943 9.03381C19.1943 9.0338 19.1943 9.03378 19.1943 9.03377C19.1943 9.03375 19.1943 9.03374 19.1943 9.03372C19.1943 9.03371 19.1943 9.03369 19.1943 9.03368C19.1943 9.03366 19.1943 9.03365 19.1943 9.03364C19.1943 9.03362 19.1943 9.03361 19.1943 9.03359C19.1943 9.03358 19.1943 9.03356 19.1943 9.03355C19.1943 9.03353 19.1943 9.03352 19.1943 9.0335C19.1943 9.03349 19.1943 9.03347 19.1943 9.03346C19.1943 9.03344 19.1943 9.03343 19.1943 9.03341C19.1943 9.0334 19.1943 9.03338 19.1943 9.03337C19.1943 9.03335 19.1943 9.03334 19.1943 9.03333C19.1943 9.03331 19.1943 9.0333 19.1943 9.03328C19.1943 9.03327 19.1943 9.03325 19.1943 9.03324C19.1943 9.03322 19.1943 9.03321 19.1943 9.03319C19.1943 9.03318 19.1943 9.03316 19.1943 9.03315C19.1943 9.03313 19.1943 9.03312 19.1943 9.0331C19.1943 9.03309 19.1943 9.03307 19.1943 9.03306C19.1943 9.03304 19.1943 9.03303 19.1943 9.03301C19.1943 9.033 19.1943 9.03298 19.1943 9.03297C19.1943 9.03296 19.1943 9.03294 19.1943 9.03293C19.1943 9.03291 19.1943 9.0329 19.1943 9.03288C19.1943 9.03287 19.1943 9.03285 19.1943 9.03284C19.1943 9.03282 19.1943 9.03281 19.1943 9.03279C19.1943 9.03278 19.1943 9.03276 19.1943 9.03275C19.1943 9.03273 19.1943 9.03272 19.1943 9.0327C19.1943 9.03269 19.1943 9.03267 19.1943 9.03266C19.1943 9.03264 19.1943 9.03263 19.1943 9.03261C19.1943 9.0326 19.1943 9.03259 19.1943 9.03257C19.1943 9.03256 19.1943 9.03254 19.1943 9.03253C19.1943 9.03251 19.1943 9.0325 19.1943 9.03248C19.1943 9.03247 19.1943 9.03245 19.1943 9.03244C19.1943 9.03242 19.1943 9.03241 19.1943 9.03239C19.1943 9.03238 19.1943 9.03236 19.1943 9.03235C19.1943 9.03233 19.1943 9.03232 19.1943 9.0323C19.1943 9.03229 19.1943 9.03227 19.1943 9.03226C19.1943 9.03224 19.1943 9.03223 19.1943 9.03221C19.1943 9.0322 19.1943 9.03218 19.1943 9.03217C19.1943 9.03216 19.1943 9.03214 19.1943 9.03213C19.1943 9.03211 19.1943 9.0321 19.1943 9.03208C19.1943 9.03207 19.1943 9.03205 19.1943 9.03204C19.1943 9.03202 19.1943 9.03201 19.1943 9.03199C19.1943 9.03198 19.1943 9.03196 19.1943 9.03195C19.1943 9.03193 19.1943 9.03192 19.1943 9.0319C19.1943 9.03189 19.1943 9.03187 19.1943 9.03186C19.1943 9.03184 19.1943 9.03183 19.1943 9.03181C19.1943 9.0318 19.1943 9.03178 19.1943 9.03177C19.1943 9.03175 19.1943 9.03174 19.1943 9.03172C19.1943 9.03171 19.1943 9.03169 19.1943 9.03168C19.1943 9.03166 19.1943 9.03165 19.1943 9.03164C19.1943 9.03162 19.1943 9.03161 19.1943 9.03159C19.1943 9.03158 19.1943 9.03156 19.1943 9.03155C19.1943 9.03153 19.1943 9.03152 19.1943 9.0315C19.1943 9.03149 19.1943 9.03147 19.1943 9.03146C19.1943 9.03144 19.1943 9.03143 19.1943 9.03141C19.1943 9.0314 19.1943 9.03138 19.1943 9.03137C19.1943 9.03135 19.1943 9.03134 19.1943 9.03132C19.1943 9.03131 19.1943 9.03129 19.1943 9.03128C19.1943 9.03126 19.1943 9.03125 19.1943 9.03123C19.1943 9.03122 19.1943 9.0312 19.1943 9.03119C19.1943 9.03117 19.1943 9.03116 19.1943 9.03114C19.1943 9.03113 19.1943 9.03111 19.1943 9.0311C19.1943 9.03108 19.1943 9.03107 19.1943 9.03105C19.1943 9.03104 19.1943 9.03102 19.1943 9.03101C19.1943 9.03099 19.1943 9.03098 19.1943 9.03096C19.1943 9.03095 19.1943 9.03093 19.1943 9.03092C19.1943 9.0309 19.1943 9.03089 19.1943 9.03088C19.1943 9.03086 19.1943 9.03084 19.1943 9.03083C19.1943 9.03082 19.1943 9.0308 19.1943 9.03079C19.1943 9.03077 19.1943 9.03076 19.1943 9.03074C19.1943 9.03073 19.1943 9.03071 19.1943 9.0307C19.1943 9.03068 19.1943 9.03067 19.1943 9.03065C19.1943 9.03064 19.1943 9.03062 19.1943 9.03061C19.1943 9.03059 19.1943 9.03058 19.1943 9.03056C19.1943 9.03055 19.1943 9.03053 19.1943 9.03052C19.1943 9.0305 19.1943 9.03049 19.1943 9.03047C19.1943 9.03046 19.1943 9.03044 19.1943 9.03043C19.1943 9.03041 19.1943 9.0304 19.1943 9.03038C19.1943 9.03037 19.1943 9.03035 19.1943 9.03034C19.1943 9.03032 19.1943 9.03031 19.1943 9.03029C19.1943 9.03028 19.1943 9.03026 19.1943 9.03025C19.1943 9.03023 19.1943 9.03022 19.1943 9.0302C19.1943 9.03019 19.1943 9.03017 19.1943 9.03016C19.1943 9.03014 19.1943 9.03013 19.1943 9.03011C19.1943 9.0301 19.1943 9.03008 19.1943 9.03007C19.1943 9.03005 19.1943 9.03004 19.1943 9.03002C19.1943 9.03001 19.1943 9.02999 19.1943 9.02998C19.1943 9.02996 19.1943 9.02995 19.1943 9.02993C19.1943 9.02991 19.1943 9.0299 19.1943 9.02989C19.1943 9.02987 19.1943 9.02985 19.1943 9.02984C19.1943 9.02983 19.1943 9.02981 19.1943 9.02979C19.1943 9.02978 19.1943 9.02977 19.1943 9.02975C19.1943 9.02973 19.1943 9.02972 19.1943 9.0297C19.1943 9.02969 19.1943 9.02967 19.1943 9.02966C19.1943 9.02964 19.1943 9.02963 19.1943 9.02961C19.1943 9.0296 19.1943 9.02958 19.1943 9.02957C19.1943 9.02955 19.1943 9.02954 19.1943 9.02952C19.1943 9.02951 19.1943 9.02949 19.1943 9.02948C19.1943 9.02946 19.1943 9.02945 19.1943 9.02943C19.1943 9.02942 19.1943 9.0294 19.1943 9.02939C19.1943 9.02937 19.1943 9.02936 19.1943 9.02934C19.1943 9.02933 19.1943 9.02931 19.1943 9.0293C19.1943 9.02928 19.1943 9.02927 19.1943 9.02925C19.1943 9.02924 19.1943 9.02922 19.1943 9.02921C19.1943 9.02919 19.1943 9.02918 19.1943 9.02916C19.1943 9.02915 19.1943 9.02913 19.1943 9.02911C19.1943 9.0291 19.1943 9.02908 19.1943 9.02907C19.1943 9.02905 19.1943 9.02904 19.1943 9.02902C19.1943 9.02901 19.1943 9.02899 19.1943 9.02898C19.1943 9.02896 19.1943 9.02895 19.1943 9.02893C19.1943 9.02892 19.1943 9.0289 19.1943 9.02889C19.1943 9.02887 19.1943 9.02886 19.1943 9.02884C19.1943 9.02883 19.1943 9.02881 19.1943 9.0288C19.1943 9.02878 19.1943 9.02877 19.1943 9.02875C19.1943 9.02874 19.1943 9.02872 19.1943 9.0287C19.1943 9.02869 19.1943 9.02867 19.1943 9.02866C19.1943 9.02864 19.1943 9.02863 19.1943 9.02861C19.1943 9.0286 19.1943 9.02858 19.1943 9.02857C19.1943 9.02855 19.1943 9.02854 19.1943 9.02852C19.1943 9.02851 19.1943 9.02849 19.1943 9.02848C19.1943 9.02846 19.1943 9.02845 19.1943 9.02843C19.1943 9.02841 19.1943 9.0284 19.1943 9.02838C19.1943 9.02837 19.1943 9.02835 19.1943 9.02834C19.1943 9.02832 19.1943 9.02831 19.1943 9.02829C19.1943 9.02828 19.1943 9.02826 19.1943 9.02825C19.1943 9.02823 19.1943 9.02822 19.1943 9.0282C19.1943 9.02819 19.1943 9.02817 19.1943 9.02815C19.1943 9.02814 19.1943 9.02812 19.1943 9.02811C19.1943 9.02809 19.1943 9.02808 19.1943 9.02806C19.1943 9.02805 19.1943 9.02803 19.1943 9.02802C19.1943 9.028 19.1943 9.02799 19.1943 9.02797C19.1943 9.02796 19.1943 9.02794 19.1943 9.02792C19.1943 9.02791 19.1943 9.02789 19.1943 9.02788C19.1943 9.02786 19.1943 9.02785 19.1943 9.02783C19.1943 9.02782 19.1943 9.0278 19.1943 9.02779C19.1943 9.02777 19.1943 9.02776 19.1943 9.02774C19.1943 9.02773 19.1943 9.02771 19.1943 9.02769C19.1943 9.02768 19.1943 9.02766 19.1943 9.02765C19.1943 9.02763 19.1943 9.02762 19.1943 9.0276C19.1943 9.02759 19.1943 9.02757 19.1943 9.02756C19.1943 9.02754 19.1943 9.02752 19.1943 9.02751C19.1943 9.02749 19.1943 9.02748 19.1943 9.02746C19.1943 9.02745 19.1943 9.02743 19.1943 9.02742C19.1943 9.0274 19.1943 9.02739 19.1943 9.02737C19.1943 9.02736 19.1943 9.02734 19.1943 9.02732C19.1943 9.02731 19.1943 9.02729 19.1943 9.02728C19.1943 9.02726 19.1943 9.02725 19.1943 9.02723C19.1943 9.02722 19.1943 9.0272 19.1943 9.02718C19.1943 9.02717 19.1943 9.02715 19.1943 9.02714C19.1943 9.02712 19.1943 9.02711 19.1943 9.02709C19.1943 9.02708 19.1943 9.02706 19.1943 9.02705C19.1943 9.02703 19.1943 9.02701 19.1943 9.027C19.1943 9.02698 19.1943 9.02697 19.1943 9.02695C19.1943 9.02694 19.1943 9.02692 19.1943 9.02691C19.1943 9.02689 19.1943 9.02687 19.1943 9.02686C19.1943 9.02684 19.1943 9.02683 19.1943 9.02681C19.1943 9.0268 19.1943 9.02678 19.1943 9.02676C19.1943 9.02675 19.1943 9.02673 19.1943 9.02672C19.1943 9.0267 19.1943 9.02669 19.1943 9.02667C19.1943 9.02666 19.1943 9.02664 19.1943 9.02662C19.1943 9.02661 19.1943 9.02659 19.1943 9.02658C19.1943 9.02656 19.1943 9.02655 19.1943 9.02653C19.1943 9.02652 19.1943 9.0265 19.1943 9.02648C19.1943 9.02647 19.1943 9.02645 19.1943 9.02644C19.1943 9.02642 19.1943 9.02641 19.1943 9.02639C19.1943 9.02637 19.1943 9.02636 19.1943 9.02634C19.1943 9.02633 19.1943 9.02631 19.1943 9.0263C19.1943 9.02628 19.1943 9.02627 19.1943 9.02625C19.1943 9.02623 19.1943 9.02622 19.1943 9.0262C19.1943 9.02619 19.1943 9.02617 19.1943 9.02616C19.1943 9.02614 19.1943 9.02612 19.1943 9.02611C19.1943 9.02609 19.1943 9.02608 19.1943 9.02606C19.1943 9.02604 19.1943 9.02603 19.1943 9.02601C19.1943 9.026 19.1943 9.02598 19.1943 9.02597C19.1943 9.02595 19.1943 9.02594 19.1943 9.02592C19.1943 9.0259 19.1943 9.02589 19.1943 9.02587C19.1943 9.02586 19.1943 9.02584 19.1943 9.02582C19.1943 9.02581 19.1943 9.02579 19.1943 9.02578C19.1943 9.02576 19.1943 9.02575 19.1943 9.02573C19.1943 9.02571 19.1943 9.0257 19.1943 9.02568C19.1943 9.02567 19.1943 9.02565 19.1943 9.02563C19.1943 9.02562 19.1943 9.0256 19.1943 9.02559C19.1943 9.02557 19.1943 9.02556 19.1943 9.02554C19.1943 9.02552 19.1943 9.02551 19.1943 9.02549C19.1943 9.02548 19.1943 9.02546 19.1943 9.02544C19.1943 9.02543 19.1943 9.02541 19.1943 9.0254C19.1943 9.02538 19.1943 9.02537 19.1943 9.02535C19.1943 9.02533 19.1943 9.02532 19.1943 9.0253C19.1943 9.02529 19.1943 9.02527 19.1943 9.02525C19.1943 9.02524 19.1943 9.02522 19.1943 9.02521C19.1943 9.02519 19.1943 9.02517 19.1943 9.02516C19.1943 9.02514 19.1943 9.02513 19.1943 9.02511C19.1943 9.02509 19.1943 9.02508 19.1943 9.02506C19.1943 9.02505 19.1943 9.02503 19.1943 9.02501C19.1943 9.025 19.1943 9.02498 19.1943 9.02497C19.1943 9.02495 19.1943 9.02493 19.1943 9.02492C19.1943 9.0249 19.1943 9.02489 19.1943 9.02487C19.1943 9.02485 19.1943 9.02484 19.1943 9.02482C19.1943 9.02481 19.1943 9.02479 19.1943 9.02477C19.1943 9.02476 19.1943 9.02474 19.1943 9.02473C19.1943 9.02471 19.1943 9.02469 19.1943 9.02468C19.1943 9.02466 19.1943 9.02465 19.1943 9.02463C19.1943 9.02461 19.1943 9.0246 19.1943 9.02458C19.1943 9.02457 19.1943 9.02455 19.1943 9.02453C19.1943 9.02452 19.1943 9.0245 19.1943 9.02449C19.1943 9.02447 19.1943 9.02445 19.1943 9.02444C19.1943 9.02442 19.1943 9.02441 19.1943 9.02439C19.1943 9.02437 19.1943 9.02436 19.1943 9.02434C19.1943 9.02432 19.1943 9.02431 19.1943 9.02429C19.1943 9.02428 19.1943 9.02426 19.1943 9.02424C19.1943 9.02423 19.1943 9.02421 19.1943 9.0242C19.1943 9.02418 19.1943 9.02416 19.1943 9.02415C19.1943 9.02413 19.1943 9.02411 19.1943 9.0241C19.1943 9.02408 19.1943 9.02407 19.1943 9.02405C19.1943 9.02403 19.1943 9.02402 19.1943 9.024C19.1943 9.02398 19.1943 9.02397 19.1943 9.02395C19.1943 9.02394 19.1943 9.02392 19.1943 9.0239C19.1943 9.02389 19.1943 9.02387 19.1943 9.02385C19.1943 9.02384 19.1943 9.02382 19.1943 9.02381C19.1943 9.02379 19.1943 9.02377 19.1943 9.02376C19.1943 9.02374 19.1943 9.02372 19.1943 9.02371C19.1943 9.02369 19.1943 9.02368 19.1943 9.02366C19.1943 9.02364 19.1943 9.02363 19.1943 9.02361C19.1943 9.02359 19.1943 9.02358 19.1943 9.02356C19.1943 9.02355 19.1943 9.02353 19.1943 9.02351C19.1943 9.0235 19.1943 9.02348 19.1943 9.02346C19.1943 9.02345 19.1943 9.02343 19.1943 9.02341C19.1943 9.0234 19.1943 9.02338 19.1943 9.02337C19.1943 9.02335 19.1943 9.02333 19.1943 9.02332C19.1943 9.0233 19.1943 9.02328 19.1943 9.02327C19.1943 9.02325 19.1943 9.02323 19.1943 9.02322C19.1943 9.0232 19.1943 9.02318 19.1943 9.02317C19.1943 9.02315 19.1943 9.02314 19.1943 9.02312C19.1943 9.0231 19.1943 9.02309 19.1943 9.02307C19.1943 9.02305 19.1943 9.02304 19.1943 9.02302C19.1943 9.023 19.1943 9.02299 19.1943 9.02297C19.1943 9.02295 19.1943 9.02294 19.1943 9.02292C19.1943 9.0229 19.1943 9.02289 19.1943 9.02287C19.1943 9.02285 19.1943 9.02284 19.1943 9.02282C19.1943 9.0228 19.1943 9.02279 19.1943 9.02277C19.1943 9.02275 19.1943 9.02274 19.1943 9.02272C19.1943 9.02271 19.1943 9.02269 19.1943 9.02267C19.1943 9.02266 19.1943 9.02264 19.1943 9.02262C19.1943 9.02261 19.1943 9.02259 19.1943 9.02257C19.1943 9.02256 19.1943 9.02254 19.1943 9.02252C19.1943 9.02251 19.1943 9.02249 19.1943 9.02247C19.1943 9.02246 19.1943 9.02244 19.1943 9.02242C19.1943 9.02241 19.1943 9.02239 19.1943 9.02237C19.1943 9.02236 19.1943 9.02234 19.1943 9.02232C19.1943 9.02231 19.1943 9.02229 19.1943 9.02227C19.1943 9.02226 19.1943 9.02224 19.1943 9.02222C19.1943 9.02221 19.1943 9.02219 19.1943 9.02217C19.1943 9.02215 19.1943 9.02214 19.1943 9.02212C19.1943 9.02211 19.1943 9.02209 19.1943 9.02207C19.1943 9.02205 19.1943 9.02204 19.1943 9.02202C19.1943 9.022 19.1943 9.02199 19.1943 9.02197C19.1943 9.02195 19.1943 9.02194 19.1943 9.02192C19.1943 9.0219 19.1943 9.02189 19.1943 9.02187C19.1943 9.02185 19.1943 9.02184 19.1943 9.02182C19.1943 9.0218 19.1943 9.02179 19.1943 9.02177C19.1943 9.02175 19.1943 9.02174 19.1943 9.02172C19.1943 9.0217 19.1943 9.02168 19.1943 9.02167C19.1943 9.02165 19.1943 9.02163 19.1943 9.02162C19.1943 9.0216 19.1943 9.02158 19.1943 9.02157C19.1943 9.02155 19.1943 9.02153 19.1943 9.02151C19.1943 9.0215 19.1943 9.02148 19.1943 9.02146C19.1943 9.02145 19.1943 9.02143 19.1943 9.02141C19.1943 9.0214 19.1943 9.02138 19.1943 9.02136C19.1943 9.02135 19.1943 9.02133 19.1943 9.02131C19.1943 9.02129 19.1943 9.02128 19.1943 9.02126C19.1943 9.02124 19.1943 9.02123 19.1943 9.02121C19.1943 9.02119 19.1943 9.02118 19.1943 9.02116C19.1943 9.02114 19.1943 9.02112 19.1943 9.02111C19.1943 9.02109 19.1943 9.02107 19.1943 9.02106C19.1943 9.02104 19.1943 9.02102 19.1943 9.021C19.1943 9.02099 19.1943 9.02097 19.1943 9.02095C19.1943 9.02094 19.1943 9.02092 19.1943 9.0209C19.1943 9.02088 19.1943 9.02087 19.1943 9.02085C19.1943 9.02083 19.1943 9.02082 19.1943 9.0208C19.1943 9.02078 19.1943 9.02076 19.1943 9.02075C19.1943 9.02073 19.1943 9.02071 19.1943 9.0207C19.1943 9.02068 19.1943 9.02066 19.1943 9.02064C19.1943 9.02063 19.1943 9.02061 19.1943 9.02059C19.1943 9.02058 19.1943 9.02056 19.1943 9.02054C19.1943 9.02052 19.1943 9.02051 19.1943 9.02049C19.1943 9.02047 19.1943 9.02045 19.1943 9.02044C19.1943 9.02042 19.1943 9.0204 19.1943 9.02039C19.1943 9.02037 19.1943 9.02035 19.1943 9.02033C19.1943 9.02032 19.1943 9.0203 19.1943 9.02028C19.1943 9.02026 19.1943 9.02025 19.1943 9.02023C19.1943 9.02021 19.1943 9.0202 19.1943 9.02018C19.1943 9.02016 19.1943 9.02014 19.1943 9.02013C19.1943 9.02011 19.1943 9.02009 19.1943 9.02007C19.1943 9.02006 19.1943 9.02004 19.1943 9.02002C19.1943 9.02 19.1943 9.01999 19.1943 9.01997C19.1943 9.01995 19.1943 9.01993 19.1943 9.01992C19.1943 9.0199 19.1943 9.01988 19.1943 9.01986C19.1943 9.01985 19.1943 9.01983 19.1943 9.01981C19.1943 9.01979 19.1943 9.01978 19.1943 9.01976C19.1943 9.01974 19.1943 9.01972 19.1943 9.01971C19.1943 9.01969 19.1943 9.01967 19.1943 9.01965C19.1943 9.01964 19.1943 9.01962 19.1943 9.0196C19.1943 9.01958 19.1943 9.01957 19.1943 9.01955C19.1943 9.01953 19.1943 9.01951 19.1943 9.0195C19.1943 9.01948 19.1943 9.01946 19.1943 9.01944C19.1943 9.01943 19.1943 9.01941 19.1943 9.01939C19.1943 9.01937 19.1943 9.01935 19.1943 9.01934C19.1943 9.01932 19.1943 9.0193 19.1943 9.01928C19.1943 9.01927 19.1943 9.01925 19.1943 9.01923C19.1943 9.01921 19.1943 9.0192 19.1943 9.01918C19.1943 9.01916 19.1943 9.01914 19.1943 9.01912C19.1943 9.01911 19.1943 9.01909 19.1943 9.01907C19.1943 9.01905 19.1943 9.01904 19.1943 9.01902C19.1943 9.019 19.1943 9.01898 19.1943 9.01897C19.1943 9.01895 19.1943 9.01893 19.1943 9.01891C19.1943 9.01889 19.1943 9.01888 19.1943 9.01886C19.1943 9.01884 19.1943 9.01882 19.1943 9.01881C19.1943 9.01879 19.1943 9.01877 19.1943 9.01875C19.1943 9.01873 19.1943 9.01872 19.1943 9.0187C19.1943 9.01868 19.1943 9.01866 19.1943 9.01864C19.1943 9.01863 19.1943 9.01861 19.1943 9.01859C19.1943 9.01857 19.1943 9.01855 19.1943 9.01854C19.1943 9.01852 19.1943 9.0185 19.1943 9.01848C19.1943 9.01847 19.1943 9.01845 19.1943 9.01843C19.1943 9.01841 19.1943 9.01839 19.1943 9.01838C19.1943 9.01836 19.1943 9.01834 19.1943 9.01832C19.1943 9.0183 19.1943 9.01829 19.1943 9.01827C19.1943 9.01825 19.1943 9.01823 19.1943 9.01821C19.1943 9.0182 19.1943 9.01818 19.1943 9.01816C19.1943 9.01814 19.1943 9.01812 19.1943 9.01811C19.1943 9.01809 19.1943 9.01807 19.1943 9.01805C19.1943 9.01803 19.1943 9.01801 19.1943 9.018C19.1943 9.01798 19.1943 9.01796 19.1943 9.01794C19.1943 9.01792 19.1943 9.01791 19.1943 9.01789C19.1943 9.01787 19.1943 9.01785 19.1943 9.01783C19.1943 9.01781 19.1943 9.0178 19.1943 9.01778C19.1943 9.01776 19.1943 9.01774 19.1943 9.01772C19.1943 9.01771 19.1943 9.01769 19.1943 9.01767C19.1943 9.01765 19.1943 9.01763 19.1943 9.01761C19.1943 9.0176 19.1943 9.01758 19.1943 9.01756C19.1943 9.01754 19.1943 9.01752 19.1943 9.0175C19.1943 9.01749 19.1943 9.01747 19.1943 9.01745C19.1943 9.01743 19.1943 9.01741 19.1943 9.0174C19.1943 9.01738 19.1943 9.01736 19.1943 9.01734C19.1943 9.01732 19.1943 9.0173 19.1943 9.01729C19.1943 9.01727 19.1943 9.01725 19.1943 9.01723C19.1943 9.01721 19.1943 9.01719 19.1943 9.01717C19.1943 9.01716 19.1943 9.01714 19.1943 9.01712C19.1943 9.0171 19.1943 9.01708 19.1943 9.01706C19.1943 9.01705 19.1943 9.01703 19.1943 9.01701C19.1943 9.01699 19.1943 9.01697 19.1943 9.01695C19.1943 9.01693 19.1943 9.01692 19.1943 9.0169C19.1943 9.01688 19.1943 9.01686 19.1943 9.01684C19.1943 9.01682 19.1943 9.0168 19.1943 9.01679C19.1943 9.01677 19.1943 9.01675 19.1943 9.01673C19.1943 9.01671 19.1943 9.01669 19.1943 9.01667C19.1943 9.01666 19.1943 9.01664 19.1943 9.01662C19.1943 9.0166 19.1943 9.01658 19.1943 9.01656C19.1943 9.01654 19.1943 9.01653 19.1943 9.01651C19.1943 9.01649 19.1943 9.01647 19.1943 9.01645C19.1943 9.01643 19.1943 9.01641 19.1943 9.0164C19.1943 9.01638 19.1943 9.01636 19.1943 9.01634C19.1943 9.01632 19.1943 9.0163 19.1943 9.01628C19.1943 9.01626 19.1943 9.01625 19.1943 9.01623C19.1943 9.01621 19.1943 9.01619 19.1943 9.01617C19.1943 9.01615 19.1943 9.01613 19.1943 9.01611C19.1943 9.0161 19.1943 9.01608 19.1943 9.01606C19.1943 9.01604 19.1943 9.01602 19.1943 9.016C19.1943 9.01598 19.1943 9.01596 19.1943 9.01594C19.1943 9.01593 19.1943 9.01591 19.1943 9.01589C19.1943 9.01587 19.1943 9.01585 19.1943 9.01583C19.1943 9.01581 19.1943 9.01579 19.1943 9.01577C19.1943 9.01576 19.1943 9.01574 19.1943 9.01572C19.1943 9.0157 19.1943 9.01568 19.1943 9.01566C19.1943 9.01564 19.1943 9.01562 19.1943 9.0156C19.1943 9.01558 19.1943 9.01557 19.1943 9.01555C19.1943 9.01553 19.1943 9.01551 19.1943 9.01549C19.1943 9.01547 19.1943 9.01545 19.1943 9.01543C19.1943 9.01541 19.1943 9.01539 19.1943 9.01538C19.1943 9.01536 19.1943 9.01534 19.1943 9.01532C19.1943 9.0153 19.1943 9.01528 19.1943 9.01526C19.1943 9.01524 19.1943 9.01522 19.1943 9.0152C19.1943 9.01518 19.1943 9.01516 19.1943 9.01515C19.1943 9.01513 19.1943 9.01511 19.1943 9.01509C19.1943 9.01507 19.1943 9.01505 19.1943 9.01503C19.1943 9.01501 19.1943 9.01499 19.1943 9.01497C19.1943 9.01495 19.1943 9.01493 19.1943 9.01491C19.1943 9.0149 19.1943 9.01488 19.1943 9.01486C19.1943 9.01484 19.1943 9.01482 19.1943 9.0148C19.1943 9.01478 19.1943 9.01476 19.1943 9.01474C19.1943 9.01472 19.1943 9.0147 19.1943 9.01468C19.1943 9.01466 19.1943 9.01464 19.1943 9.01462C19.1943 9.01461 19.1943 9.01459 19.1943 9.01457C19.1943 9.01455 19.1943 9.01453 19.1943 9.01451C19.1943 9.01449 19.1943 9.01447 19.1943 9.01445C19.1943 9.01443 19.1943 9.01441 19.1943 9.01439C19.1943 9.01437 19.1943 9.01435 19.1943 9.01433C19.1943 9.01431 19.1943 9.01429 19.1943 9.01427C19.1943 9.01426 19.1943 9.01424 19.1943 9.01422C19.1943 9.0142 19.1943 9.01418 19.1943 9.01416C19.1943 9.01414 19.1943 9.01412 19.1943 9.0141C19.1943 9.01408 19.1943 9.01406 19.1943 9.01404C19.1943 9.01402 19.1943 9.014 19.1943 9.01398C19.1943 9.01396 19.1943 9.01394 19.1943 9.01392C19.1943 9.0139 19.1943 9.01388 19.1943 9.01386C19.1943 9.01384 19.1943 9.01382 19.1943 9.0138C19.1943 9.01378 19.1943 9.01376 19.1943 9.01375C19.1943 9.01373 19.1943 9.01371 19.1943 9.01369C19.1943 9.01367 19.1943 9.01365 19.1943 9.01363C19.1943 9.01361 19.1943 9.01359 19.1943 9.01357C19.1943 9.01355 19.1943 9.01353 19.1943 9.01351C19.1943 9.01349 19.1943 9.01347 19.1943 9.01345C19.1943 9.01343 19.1943 9.01341 19.1943 9.01339C19.1943 9.01337 19.1943 9.01335 19.1943 9.01333C19.1943 9.01331 19.1943 9.01329 19.1943 9.01327C19.1943 9.01325 19.1943 9.01323 19.1943 9.01321C19.1943 9.01319 19.1943 9.01317 19.1943 9.01315C19.1943 9.01313 19.1943 9.01311 19.1943 9.01309C19.1943 9.01307 19.1943 9.01305 19.1943 9.01303C19.1943 9.01301 19.1943 9.01299 19.1943 9.01297C19.1943 9.01295 19.1943 9.01293 19.1943 9.01291C19.1943 9.01289 19.1943 9.01287 19.1943 9.01285C19.1943 9.01283 19.1943 9.01281 19.1943 9.01279C19.1943 9.01277 19.1943 9.01275 19.1943 9.01273C19.1943 9.01271 19.1943 9.01269 19.1943 9.01267C19.1943 9.01265 19.1943 9.01263 19.1943 9.01261C19.1943 9.01259 19.1943 9.01257 19.1943 9.01255C19.1943 9.01253 19.1943 9.01251 19.1943 9.01249C19.1943 9.01247 19.1943 9.01245 19.1943 9.01243C19.1943 9.01241 19.1943 9.01238 19.1943 9.01236C19.1943 9.01234 19.1943 9.01232 19.1943 9.0123C19.1943 9.01228 19.1943 9.01226 19.1943 9.01224C19.1943 9.01222 19.1943 9.0122 19.1943 9.01218C19.1943 9.01216 19.1943 9.01214 19.1943 9.01212C19.1943 9.0121 19.1943 9.01208 19.1943 9.01206C19.1943 9.01204 19.1943 9.01202 19.1943 9.012C19.1943 9.01198 19.1943 9.01196 19.1943 9.01194C19.1943 9.01192 19.1943 9.0119 19.1943 9.01188C19.1943 9.01186 19.1943 9.01183 19.1943 9.01181C19.1943 9.01179 19.1943 9.01177 19.1943 9.01175C19.1943 9.01173 19.1943 9.01171 19.1943 9.01169C19.1943 9.01167 19.1943 9.01165 19.1943 9.01163C19.1943 9.01161 19.1943 9.01159 19.1943 9.01157C19.1943 9.01155 19.1943 9.01153 19.1943 9.01151C19.1943 9.01148 19.1943 9.01146 19.1943 9.01144C19.1943 9.01142 19.1943 9.0114 19.1943 9.01138C19.1943 9.01136 19.1943 9.01134 19.1943 9.01132C19.1943 9.0113 19.1943 9.01128 19.1943 9.01126C19.1943 9.01124 19.1943 9.01122 19.1943 9.01119C19.1943 9.01117 19.1943 9.01115 19.1943 9.01113C19.1943 9.01111 19.1943 9.01109 19.1943 9.01107C19.1943 9.01105 19.1943 9.01103 19.1943 9.01101C19.1943 9.01099 19.1943 9.01097 19.1943 9.01094C19.1943 9.01092 19.1943 9.0109 19.1943 9.01088C19.1943 9.01086 19.1943 9.01084 19.1943 9.01082C19.1943 9.0108 19.1943 9.01078 19.1943 9.01076C19.1943 9.01074 19.1943 9.01071 19.1943 9.01069C19.1943 9.01067 19.1943 9.01065 19.1943 9.01063C19.1943 9.01061 19.1943 9.01059 19.1943 9.01057C19.1943 9.01055 19.1943 9.01052 19.1943 9.0105C19.1943 9.01048 19.1943 9.01046 19.1943 9.01044C19.1943 9.01042 19.1943 9.0104 19.1943 9.01038C19.1943 9.01036 19.1943 9.01033 19.1943 9.01031C19.1943 9.01029 19.1943 9.01027 19.1943 9.01025C19.1943 9.01023 19.1943 9.01021 19.1943 9.01019C19.1943 9.01017 19.1943 9.01015 19.1943 9.01012C19.1943 9.0101 19.1943 9.01008 19.1943 9.01006C19.1943 9.01004 19.1943 9.01002 19.1943 9.01C19.1943 9.00997 19.1943 9.00995 19.1943 9.00993C19.1943 9.00991 19.1943 9.00989 19.1943 9.00987C19.1943 9.00985 19.1943 9.00983 19.1943 9.0098C19.1943 9.00978 19.1943 9.00976 19.1943 9.00974C19.1943 9.00972 19.1943 9.0097 19.1943 9.00968C19.1943 9.00965 19.1943 9.00963 19.1943 9.00961C19.1943 9.00959 19.1943 9.00957 19.1943 9.00955C19.1943 9.00953 19.1943 9.0095 19.1943 9.00948C19.1943 9.00946 19.1943 9.00944 19.1943 9.00942C19.1943 9.0094 19.1943 9.00938 19.1943 9.00935C19.1943 9.00933 19.1943 9.00931 19.1943 9.00929C19.1943 9.00927 19.1943 9.00925 19.1943 9.00922C19.1943 9.0092 19.1943 9.00918 19.1943 9.00916C19.1943 9.00914 19.1943 9.00912 19.1943 9.00909C19.1943 9.00907 19.1943 9.00905 19.1943 9.00903C19.1943 9.00901 19.1943 9.00899 19.1943 9.00896C19.1943 9.00894 19.1943 9.00892 19.1943 9.0089C19.1943 9.00888 19.1943 9.00886 19.1943 9.00883C19.1943 9.00881 19.1943 9.00879 19.1943 9.00877C19.1943 9.00875 19.1943 9.00873 19.1943 9.0087C19.1943 9.00868 19.1943 9.00866 19.1943 9.00864C19.1943 9.00862 19.1943 9.00859 19.1943 9.00857C19.1943 9.00855 19.1943 9.00853 19.1943 9.00851C19.1943 9.00848 19.1943 9.00846 19.1943 9.00844C19.1943 9.00842 19.1943 9.0084 19.1943 9.00837C19.1943 9.00835 19.1943 9.00833 19.1943 9.00831C19.1943 9.00829 19.1943 9.00826 19.1943 9.00824C19.1943 9.00822 19.1943 9.0082 19.1943 9.00818C19.1943 9.00815 19.1943 9.00813 19.1943 9.00811C19.1943 9.00809 19.1943 9.00807 19.1943 9.00804C19.1943 9.00802 19.1943 9.008 19.1943 9.00798H18.7943C18.7943 9.008 18.7943 9.00802 18.7943 9.00804C18.7943 9.00807 18.7943 9.00809 18.7943 9.00811C18.7943 9.00813 18.7943 9.00815 18.7943 9.00818C18.7943 9.0082 18.7943 9.00822 18.7943 9.00824C18.7943 9.00826 18.7943 9.00829 18.7943 9.00831C18.7943 9.00833 18.7943 9.00835 18.7943 9.00837C18.7943 9.0084 18.7943 9.00842 18.7943 9.00844C18.7943 9.00846 18.7943 9.00848 18.7943 9.00851C18.7943 9.00853 18.7943 9.00855 18.7943 9.00857C18.7943 9.00859 18.7943 9.00862 18.7943 9.00864C18.7943 9.00866 18.7943 9.00868 18.7943 9.0087C18.7943 9.00873 18.7943 9.00875 18.7943 9.00877C18.7943 9.00879 18.7943 9.00881 18.7943 9.00883C18.7943 9.00886 18.7943 9.00888 18.7943 9.0089C18.7943 9.00892 18.7943 9.00894 18.7943 9.00896C18.7943 9.00899 18.7943 9.00901 18.7943 9.00903C18.7943 9.00905 18.7943 9.00907 18.7943 9.00909C18.7943 9.00912 18.7943 9.00914 18.7943 9.00916C18.7943 9.00918 18.7943 9.0092 18.7943 9.00922C18.7943 9.00925 18.7943 9.00927 18.7943 9.00929C18.7943 9.00931 18.7943 9.00933 18.7943 9.00935C18.7943 9.00938 18.7943 9.0094 18.7943 9.00942C18.7943 9.00944 18.7943 9.00946 18.7943 9.00948C18.7943 9.0095 18.7943 9.00953 18.7943 9.00955C18.7943 9.00957 18.7943 9.00959 18.7943 9.00961C18.7943 9.00963 18.7943 9.00965 18.7943 9.00968C18.7943 9.0097 18.7943 9.00972 18.7943 9.00974C18.7943 9.00976 18.7943 9.00978 18.7943 9.0098C18.7943 9.00983 18.7943 9.00985 18.7943 9.00987C18.7943 9.00989 18.7943 9.00991 18.7943 9.00993C18.7943 9.00995 18.7943 9.00997 18.7943 9.01C18.7943 9.01002 18.7943 9.01004 18.7943 9.01006C18.7943 9.01008 18.7943 9.0101 18.7943 9.01012C18.7943 9.01015 18.7943 9.01017 18.7943 9.01019C18.7943 9.01021 18.7943 9.01023 18.7943 9.01025C18.7943 9.01027 18.7943 9.01029 18.7943 9.01031C18.7943 9.01033 18.7943 9.01036 18.7943 9.01038C18.7943 9.0104 18.7943 9.01042 18.7943 9.01044C18.7943 9.01046 18.7943 9.01048 18.7943 9.0105C18.7943 9.01052 18.7943 9.01055 18.7943 9.01057C18.7943 9.01059 18.7943 9.01061 18.7943 9.01063C18.7943 9.01065 18.7943 9.01067 18.7943 9.01069C18.7943 9.01071 18.7943 9.01074 18.7943 9.01076C18.7943 9.01078 18.7943 9.0108 18.7943 9.01082C18.7943 9.01084 18.7943 9.01086 18.7943 9.01088C18.7943 9.0109 18.7943 9.01092 18.7943 9.01094C18.7943 9.01097 18.7943 9.01099 18.7943 9.01101C18.7943 9.01103 18.7943 9.01105 18.7943 9.01107C18.7943 9.01109 18.7943 9.01111 18.7943 9.01113C18.7943 9.01115 18.7943 9.01117 18.7943 9.01119C18.7943 9.01122 18.7943 9.01124 18.7943 9.01126C18.7943 9.01128 18.7943 9.0113 18.7943 9.01132C18.7943 9.01134 18.7943 9.01136 18.7943 9.01138C18.7943 9.0114 18.7943 9.01142 18.7943 9.01144C18.7943 9.01146 18.7943 9.01148 18.7943 9.01151C18.7943 9.01153 18.7943 9.01155 18.7943 9.01157C18.7943 9.01159 18.7943 9.01161 18.7943 9.01163C18.7943 9.01165 18.7943 9.01167 18.7943 9.01169C18.7943 9.01171 18.7943 9.01173 18.7943 9.01175C18.7943 9.01177 18.7943 9.01179 18.7943 9.01181C18.7943 9.01183 18.7943 9.01186 18.7943 9.01188C18.7943 9.0119 18.7943 9.01192 18.7943 9.01194C18.7943 9.01196 18.7943 9.01198 18.7943 9.012C18.7943 9.01202 18.7943 9.01204 18.7943 9.01206C18.7943 9.01208 18.7943 9.0121 18.7943 9.01212C18.7943 9.01214 18.7943 9.01216 18.7943 9.01218C18.7943 9.0122 18.7943 9.01222 18.7943 9.01224C18.7943 9.01226 18.7943 9.01228 18.7943 9.0123C18.7943 9.01232 18.7943 9.01234 18.7943 9.01236C18.7943 9.01238 18.7943 9.01241 18.7943 9.01243C18.7943 9.01245 18.7943 9.01247 18.7943 9.01249C18.7943 9.01251 18.7943 9.01253 18.7943 9.01255C18.7943 9.01257 18.7943 9.01259 18.7943 9.01261C18.7943 9.01263 18.7943 9.01265 18.7943 9.01267C18.7943 9.01269 18.7943 9.01271 18.7943 9.01273C18.7943 9.01275 18.7943 9.01277 18.7943 9.01279C18.7943 9.01281 18.7943 9.01283 18.7943 9.01285C18.7943 9.01287 18.7943 9.01289 18.7943 9.01291C18.7943 9.01293 18.7943 9.01295 18.7943 9.01297C18.7943 9.01299 18.7943 9.01301 18.7943 9.01303C18.7943 9.01305 18.7943 9.01307 18.7943 9.01309C18.7943 9.01311 18.7943 9.01313 18.7943 9.01315C18.7943 9.01317 18.7943 9.01319 18.7943 9.01321C18.7943 9.01323 18.7943 9.01325 18.7943 9.01327C18.7943 9.01329 18.7943 9.01331 18.7943 9.01333C18.7943 9.01335 18.7943 9.01337 18.7943 9.01339C18.7943 9.01341 18.7943 9.01343 18.7943 9.01345C18.7943 9.01347 18.7943 9.01349 18.7943 9.01351C18.7943 9.01353 18.7943 9.01355 18.7943 9.01357C18.7943 9.01359 18.7943 9.01361 18.7943 9.01363C18.7943 9.01365 18.7943 9.01367 18.7943 9.01369C18.7943 9.01371 18.7943 9.01373 18.7943 9.01375C18.7943 9.01376 18.7943 9.01378 18.7943 9.0138C18.7943 9.01382 18.7943 9.01384 18.7943 9.01386C18.7943 9.01388 18.7943 9.0139 18.7943 9.01392C18.7943 9.01394 18.7943 9.01396 18.7943 9.01398C18.7943 9.014 18.7943 9.01402 18.7943 9.01404C18.7943 9.01406 18.7943 9.01408 18.7943 9.0141C18.7943 9.01412 18.7943 9.01414 18.7943 9.01416C18.7943 9.01418 18.7943 9.0142 18.7943 9.01422C18.7943 9.01424 18.7943 9.01426 18.7943 9.01427C18.7943 9.01429 18.7943 9.01431 18.7943 9.01433C18.7943 9.01435 18.7943 9.01437 18.7943 9.01439C18.7943 9.01441 18.7943 9.01443 18.7943 9.01445C18.7943 9.01447 18.7943 9.01449 18.7943 9.01451C18.7943 9.01453 18.7943 9.01455 18.7943 9.01457C18.7943 9.01459 18.7943 9.01461 18.7943 9.01462C18.7943 9.01464 18.7943 9.01466 18.7943 9.01468C18.7943 9.0147 18.7943 9.01472 18.7943 9.01474C18.7943 9.01476 18.7943 9.01478 18.7943 9.0148C18.7943 9.01482 18.7943 9.01484 18.7943 9.01486C18.7943 9.01488 18.7943 9.0149 18.7943 9.01491C18.7943 9.01493 18.7943 9.01495 18.7943 9.01497C18.7943 9.01499 18.7943 9.01501 18.7943 9.01503C18.7943 9.01505 18.7943 9.01507 18.7943 9.01509C18.7943 9.01511 18.7943 9.01513 18.7943 9.01515C18.7943 9.01516 18.7943 9.01518 18.7943 9.0152C18.7943 9.01522 18.7943 9.01524 18.7943 9.01526C18.7943 9.01528 18.7943 9.0153 18.7943 9.01532C18.7943 9.01534 18.7943 9.01536 18.7943 9.01538C18.7943 9.01539 18.7943 9.01541 18.7943 9.01543C18.7943 9.01545 18.7943 9.01547 18.7943 9.01549C18.7943 9.01551 18.7943 9.01553 18.7943 9.01555C18.7943 9.01557 18.7943 9.01558 18.7943 9.0156C18.7943 9.01562 18.7943 9.01564 18.7943 9.01566C18.7943 9.01568 18.7943 9.0157 18.7943 9.01572C18.7943 9.01574 18.7943 9.01576 18.7943 9.01577C18.7943 9.01579 18.7943 9.01581 18.7943 9.01583C18.7943 9.01585 18.7943 9.01587 18.7943 9.01589C18.7943 9.01591 18.7943 9.01593 18.7943 9.01594C18.7943 9.01596 18.7943 9.01598 18.7943 9.016C18.7943 9.01602 18.7943 9.01604 18.7943 9.01606C18.7943 9.01608 18.7943 9.0161 18.7943 9.01611C18.7943 9.01613 18.7943 9.01615 18.7943 9.01617C18.7943 9.01619 18.7943 9.01621 18.7943 9.01623C18.7943 9.01625 18.7943 9.01626 18.7943 9.01628C18.7943 9.0163 18.7943 9.01632 18.7943 9.01634C18.7943 9.01636 18.7943 9.01638 18.7943 9.0164C18.7943 9.01641 18.7943 9.01643 18.7943 9.01645C18.7943 9.01647 18.7943 9.01649 18.7943 9.01651C18.7943 9.01653 18.7943 9.01654 18.7943 9.01656C18.7943 9.01658 18.7943 9.0166 18.7943 9.01662C18.7943 9.01664 18.7943 9.01666 18.7943 9.01667C18.7943 9.01669 18.7943 9.01671 18.7943 9.01673C18.7943 9.01675 18.7943 9.01677 18.7943 9.01679C18.7943 9.0168 18.7943 9.01682 18.7943 9.01684C18.7943 9.01686 18.7943 9.01688 18.7943 9.0169C18.7943 9.01692 18.7943 9.01693 18.7943 9.01695C18.7943 9.01697 18.7943 9.01699 18.7943 9.01701C18.7943 9.01703 18.7943 9.01705 18.7943 9.01706C18.7943 9.01708 18.7943 9.0171 18.7943 9.01712C18.7943 9.01714 18.7943 9.01716 18.7943 9.01717C18.7943 9.01719 18.7943 9.01721 18.7943 9.01723C18.7943 9.01725 18.7943 9.01727 18.7943 9.01729C18.7943 9.0173 18.7943 9.01732 18.7943 9.01734C18.7943 9.01736 18.7943 9.01738 18.7943 9.0174C18.7943 9.01741 18.7943 9.01743 18.7943 9.01745C18.7943 9.01747 18.7943 9.01749 18.7943 9.0175C18.7943 9.01752 18.7943 9.01754 18.7943 9.01756C18.7943 9.01758 18.7943 9.0176 18.7943 9.01761C18.7943 9.01763 18.7943 9.01765 18.7943 9.01767C18.7943 9.01769 18.7943 9.01771 18.7943 9.01772C18.7943 9.01774 18.7943 9.01776 18.7943 9.01778C18.7943 9.0178 18.7943 9.01781 18.7943 9.01783C18.7943 9.01785 18.7943 9.01787 18.7943 9.01789C18.7943 9.01791 18.7943 9.01792 18.7943 9.01794C18.7943 9.01796 18.7943 9.01798 18.7943 9.018C18.7943 9.01801 18.7943 9.01803 18.7943 9.01805C18.7943 9.01807 18.7943 9.01809 18.7943 9.01811C18.7943 9.01812 18.7943 9.01814 18.7943 9.01816C18.7943 9.01818 18.7943 9.0182 18.7943 9.01821C18.7943 9.01823 18.7943 9.01825 18.7943 9.01827C18.7943 9.01829 18.7943 9.0183 18.7943 9.01832C18.7943 9.01834 18.7943 9.01836 18.7943 9.01838C18.7943 9.01839 18.7943 9.01841 18.7943 9.01843C18.7943 9.01845 18.7943 9.01847 18.7943 9.01848C18.7943 9.0185 18.7943 9.01852 18.7943 9.01854C18.7943 9.01855 18.7943 9.01857 18.7943 9.01859C18.7943 9.01861 18.7943 9.01863 18.7943 9.01864C18.7943 9.01866 18.7943 9.01868 18.7943 9.0187C18.7943 9.01872 18.7943 9.01873 18.7943 9.01875C18.7943 9.01877 18.7943 9.01879 18.7943 9.01881C18.7943 9.01882 18.7943 9.01884 18.7943 9.01886C18.7943 9.01888 18.7943 9.01889 18.7943 9.01891C18.7943 9.01893 18.7943 9.01895 18.7943 9.01897C18.7943 9.01898 18.7943 9.019 18.7943 9.01902C18.7943 9.01904 18.7943 9.01905 18.7943 9.01907C18.7943 9.01909 18.7943 9.01911 18.7943 9.01912C18.7943 9.01914 18.7943 9.01916 18.7943 9.01918C18.7943 9.0192 18.7943 9.01921 18.7943 9.01923C18.7943 9.01925 18.7943 9.01927 18.7943 9.01928C18.7943 9.0193 18.7943 9.01932 18.7943 9.01934C18.7943 9.01935 18.7943 9.01937 18.7943 9.01939C18.7943 9.01941 18.7943 9.01943 18.7943 9.01944C18.7943 9.01946 18.7943 9.01948 18.7943 9.0195C18.7943 9.01951 18.7943 9.01953 18.7943 9.01955C18.7943 9.01957 18.7943 9.01958 18.7943 9.0196C18.7943 9.01962 18.7943 9.01964 18.7943 9.01965C18.7943 9.01967 18.7943 9.01969 18.7943 9.01971C18.7943 9.01972 18.7943 9.01974 18.7943 9.01976C18.7943 9.01978 18.7943 9.01979 18.7943 9.01981C18.7943 9.01983 18.7943 9.01985 18.7943 9.01986C18.7943 9.01988 18.7943 9.0199 18.7943 9.01992C18.7943 9.01993 18.7943 9.01995 18.7943 9.01997C18.7943 9.01999 18.7943 9.02 18.7943 9.02002C18.7943 9.02004 18.7943 9.02006 18.7943 9.02007C18.7943 9.02009 18.7943 9.02011 18.7943 9.02013C18.7943 9.02014 18.7943 9.02016 18.7943 9.02018C18.7943 9.0202 18.7943 9.02021 18.7943 9.02023C18.7943 9.02025 18.7943 9.02026 18.7943 9.02028C18.7943 9.0203 18.7943 9.02032 18.7943 9.02033C18.7943 9.02035 18.7943 9.02037 18.7943 9.02039C18.7943 9.0204 18.7943 9.02042 18.7943 9.02044C18.7943 9.02045 18.7943 9.02047 18.7943 9.02049C18.7943 9.02051 18.7943 9.02052 18.7943 9.02054C18.7943 9.02056 18.7943 9.02058 18.7943 9.02059C18.7943 9.02061 18.7943 9.02063 18.7943 9.02064C18.7943 9.02066 18.7943 9.02068 18.7943 9.0207C18.7943 9.02071 18.7943 9.02073 18.7943 9.02075C18.7943 9.02076 18.7943 9.02078 18.7943 9.0208C18.7943 9.02082 18.7943 9.02083 18.7943 9.02085C18.7943 9.02087 18.7943 9.02088 18.7943 9.0209C18.7943 9.02092 18.7943 9.02094 18.7943 9.02095C18.7943 9.02097 18.7943 9.02099 18.7943 9.021C18.7943 9.02102 18.7943 9.02104 18.7943 9.02106C18.7943 9.02107 18.7943 9.02109 18.7943 9.02111C18.7943 9.02112 18.7943 9.02114 18.7943 9.02116C18.7943 9.02118 18.7943 9.02119 18.7943 9.02121C18.7943 9.02123 18.7943 9.02124 18.7943 9.02126C18.7943 9.02128 18.7943 9.02129 18.7943 9.02131C18.7943 9.02133 18.7943 9.02135 18.7943 9.02136C18.7943 9.02138 18.7943 9.0214 18.7943 9.02141C18.7943 9.02143 18.7943 9.02145 18.7943 9.02146C18.7943 9.02148 18.7943 9.0215 18.7943 9.02151C18.7943 9.02153 18.7943 9.02155 18.7943 9.02157C18.7943 9.02158 18.7943 9.0216 18.7943 9.02162C18.7943 9.02163 18.7943 9.02165 18.7943 9.02167C18.7943 9.02168 18.7943 9.0217 18.7943 9.02172C18.7943 9.02174 18.7943 9.02175 18.7943 9.02177C18.7943 9.02179 18.7943 9.0218 18.7943 9.02182C18.7943 9.02184 18.7943 9.02185 18.7943 9.02187C18.7943 9.02189 18.7943 9.0219 18.7943 9.02192C18.7943 9.02194 18.7943 9.02195 18.7943 9.02197C18.7943 9.02199 18.7943 9.022 18.7943 9.02202C18.7943 9.02204 18.7943 9.02205 18.7943 9.02207C18.7943 9.02209 18.7943 9.02211 18.7943 9.02212C18.7943 9.02214 18.7943 9.02215 18.7943 9.02217C18.7943 9.02219 18.7943 9.02221 18.7943 9.02222C18.7943 9.02224 18.7943 9.02226 18.7943 9.02227C18.7943 9.02229 18.7943 9.02231 18.7943 9.02232C18.7943 9.02234 18.7943 9.02236 18.7943 9.02237C18.7943 9.02239 18.7943 9.02241 18.7943 9.02242C18.7943 9.02244 18.7943 9.02246 18.7943 9.02247C18.7943 9.02249 18.7943 9.02251 18.7943 9.02252C18.7943 9.02254 18.7943 9.02256 18.7943 9.02257C18.7943 9.02259 18.7943 9.02261 18.7943 9.02262C18.7943 9.02264 18.7943 9.02266 18.7943 9.02267C18.7943 9.02269 18.7943 9.02271 18.7943 9.02272C18.7943 9.02274 18.7943 9.02275 18.7943 9.02277C18.7943 9.02279 18.7943 9.0228 18.7943 9.02282C18.7943 9.02284 18.7943 9.02285 18.7943 9.02287C18.7943 9.02289 18.7943 9.0229 18.7943 9.02292C18.7943 9.02294 18.7943 9.02295 18.7943 9.02297C18.7943 9.02299 18.7943 9.023 18.7943 9.02302C18.7943 9.02304 18.7943 9.02305 18.7943 9.02307C18.7943 9.02309 18.7943 9.0231 18.7943 9.02312C18.7943 9.02314 18.7943 9.02315 18.7943 9.02317C18.7943 9.02318 18.7943 9.0232 18.7943 9.02322C18.7943 9.02323 18.7943 9.02325 18.7943 9.02327C18.7943 9.02328 18.7943 9.0233 18.7943 9.02332C18.7943 9.02333 18.7943 9.02335 18.7943 9.02337C18.7943 9.02338 18.7943 9.0234 18.7943 9.02341C18.7943 9.02343 18.7943 9.02345 18.7943 9.02346C18.7943 9.02348 18.7943 9.0235 18.7943 9.02351C18.7943 9.02353 18.7943 9.02355 18.7943 9.02356C18.7943 9.02358 18.7943 9.02359 18.7943 9.02361C18.7943 9.02363 18.7943 9.02364 18.7943 9.02366C18.7943 9.02368 18.7943 9.02369 18.7943 9.02371C18.7943 9.02372 18.7943 9.02374 18.7943 9.02376C18.7943 9.02377 18.7943 9.02379 18.7943 9.02381C18.7943 9.02382 18.7943 9.02384 18.7943 9.02385C18.7943 9.02387 18.7943 9.02389 18.7943 9.0239C18.7943 9.02392 18.7943 9.02394 18.7943 9.02395C18.7943 9.02397 18.7943 9.02398 18.7943 9.024C18.7943 9.02402 18.7943 9.02403 18.7943 9.02405C18.7943 9.02407 18.7943 9.02408 18.7943 9.0241C18.7943 9.02411 18.7943 9.02413 18.7943 9.02415C18.7943 9.02416 18.7943 9.02418 18.7943 9.0242C18.7943 9.02421 18.7943 9.02423 18.7943 9.02424C18.7943 9.02426 18.7943 9.02428 18.7943 9.02429C18.7943 9.02431 18.7943 9.02432 18.7943 9.02434C18.7943 9.02436 18.7943 9.02437 18.7943 9.02439C18.7943 9.02441 18.7943 9.02442 18.7943 9.02444C18.7943 9.02445 18.7943 9.02447 18.7943 9.02449C18.7943 9.0245 18.7943 9.02452 18.7943 9.02453C18.7943 9.02455 18.7943 9.02457 18.7943 9.02458C18.7943 9.0246 18.7943 9.02461 18.7943 9.02463C18.7943 9.02465 18.7943 9.02466 18.7943 9.02468C18.7943 9.02469 18.7943 9.02471 18.7943 9.02473C18.7943 9.02474 18.7943 9.02476 18.7943 9.02477C18.7943 9.02479 18.7943 9.02481 18.7943 9.02482C18.7943 9.02484 18.7943 9.02485 18.7943 9.02487C18.7943 9.02489 18.7943 9.0249 18.7943 9.02492C18.7943 9.02493 18.7943 9.02495 18.7943 9.02497C18.7943 9.02498 18.7943 9.025 18.7943 9.02501C18.7943 9.02503 18.7943 9.02505 18.7943 9.02506C18.7943 9.02508 18.7943 9.02509 18.7943 9.02511C18.7943 9.02513 18.7943 9.02514 18.7943 9.02516C18.7943 9.02517 18.7943 9.02519 18.7943 9.02521C18.7943 9.02522 18.7943 9.02524 18.7943 9.02525C18.7943 9.02527 18.7943 9.02529 18.7943 9.0253C18.7943 9.02532 18.7943 9.02533 18.7943 9.02535C18.7943 9.02537 18.7943 9.02538 18.7943 9.0254C18.7943 9.02541 18.7943 9.02543 18.7943 9.02544C18.7943 9.02546 18.7943 9.02548 18.7943 9.02549C18.7943 9.02551 18.7943 9.02552 18.7943 9.02554C18.7943 9.02556 18.7943 9.02557 18.7943 9.02559C18.7943 9.0256 18.7943 9.02562 18.7943 9.02563C18.7943 9.02565 18.7943 9.02567 18.7943 9.02568C18.7943 9.0257 18.7943 9.02571 18.7943 9.02573C18.7943 9.02575 18.7943 9.02576 18.7943 9.02578C18.7943 9.02579 18.7943 9.02581 18.7943 9.02582C18.7943 9.02584 18.7943 9.02586 18.7943 9.02587C18.7943 9.02589 18.7943 9.0259 18.7943 9.02592C18.7943 9.02594 18.7943 9.02595 18.7943 9.02597C18.7943 9.02598 18.7943 9.026 18.7943 9.02601C18.7943 9.02603 18.7943 9.02604 18.7943 9.02606C18.7943 9.02608 18.7943 9.02609 18.7943 9.02611C18.7943 9.02612 18.7943 9.02614 18.7943 9.02616C18.7943 9.02617 18.7943 9.02619 18.7943 9.0262C18.7943 9.02622 18.7943 9.02623 18.7943 9.02625C18.7943 9.02627 18.7943 9.02628 18.7943 9.0263C18.7943 9.02631 18.7943 9.02633 18.7943 9.02634C18.7943 9.02636 18.7943 9.02637 18.7943 9.02639C18.7943 9.02641 18.7943 9.02642 18.7943 9.02644C18.7943 9.02645 18.7943 9.02647 18.7943 9.02648C18.7943 9.0265 18.7943 9.02652 18.7943 9.02653C18.7943 9.02655 18.7943 9.02656 18.7943 9.02658C18.7943 9.02659 18.7943 9.02661 18.7943 9.02662C18.7943 9.02664 18.7943 9.02666 18.7943 9.02667C18.7943 9.02669 18.7943 9.0267 18.7943 9.02672C18.7943 9.02673 18.7943 9.02675 18.7943 9.02676C18.7943 9.02678 18.7943 9.0268 18.7943 9.02681C18.7943 9.02683 18.7943 9.02684 18.7943 9.02686C18.7943 9.02687 18.7943 9.02689 18.7943 9.02691C18.7943 9.02692 18.7943 9.02694 18.7943 9.02695C18.7943 9.02697 18.7943 9.02698 18.7943 9.027C18.7943 9.02701 18.7943 9.02703 18.7943 9.02705C18.7943 9.02706 18.7943 9.02708 18.7943 9.02709C18.7943 9.02711 18.7943 9.02712 18.7943 9.02714C18.7943 9.02715 18.7943 9.02717 18.7943 9.02718C18.7943 9.0272 18.7943 9.02722 18.7943 9.02723C18.7943 9.02725 18.7943 9.02726 18.7943 9.02728C18.7943 9.02729 18.7943 9.02731 18.7943 9.02732C18.7943 9.02734 18.7943 9.02736 18.7943 9.02737C18.7943 9.02739 18.7943 9.0274 18.7943 9.02742C18.7943 9.02743 18.7943 9.02745 18.7943 9.02746C18.7943 9.02748 18.7943 9.02749 18.7943 9.02751C18.7943 9.02752 18.7943 9.02754 18.7943 9.02756C18.7943 9.02757 18.7943 9.02759 18.7943 9.0276C18.7943 9.02762 18.7943 9.02763 18.7943 9.02765C18.7943 9.02766 18.7943 9.02768 18.7943 9.02769C18.7943 9.02771 18.7943 9.02773 18.7943 9.02774C18.7943 9.02776 18.7943 9.02777 18.7943 9.02779C18.7943 9.0278 18.7943 9.02782 18.7943 9.02783C18.7943 9.02785 18.7943 9.02786 18.7943 9.02788C18.7943 9.02789 18.7943 9.02791 18.7943 9.02792C18.7943 9.02794 18.7943 9.02796 18.7943 9.02797C18.7943 9.02799 18.7943 9.028 18.7943 9.02802C18.7943 9.02803 18.7943 9.02805 18.7943 9.02806C18.7943 9.02808 18.7943 9.02809 18.7943 9.02811C18.7943 9.02812 18.7943 9.02814 18.7943 9.02815C18.7943 9.02817 18.7943 9.02819 18.7943 9.0282C18.7943 9.02822 18.7943 9.02823 18.7943 9.02825C18.7943 9.02826 18.7943 9.02828 18.7943 9.02829C18.7943 9.02831 18.7943 9.02832 18.7943 9.02834C18.7943 9.02835 18.7943 9.02837 18.7943 9.02838C18.7943 9.0284 18.7943 9.02841 18.7943 9.02843C18.7943 9.02845 18.7943 9.02846 18.7943 9.02848C18.7943 9.02849 18.7943 9.02851 18.7943 9.02852C18.7943 9.02854 18.7943 9.02855 18.7943 9.02857C18.7943 9.02858 18.7943 9.0286 18.7943 9.02861C18.7943 9.02863 18.7943 9.02864 18.7943 9.02866C18.7943 9.02867 18.7943 9.02869 18.7943 9.0287C18.7943 9.02872 18.7943 9.02874 18.7943 9.02875C18.7943 9.02877 18.7943 9.02878 18.7943 9.0288C18.7943 9.02881 18.7943 9.02883 18.7943 9.02884C18.7943 9.02886 18.7943 9.02887 18.7943 9.02889C18.7943 9.0289 18.7943 9.02892 18.7943 9.02893C18.7943 9.02895 18.7943 9.02896 18.7943 9.02898C18.7943 9.02899 18.7943 9.02901 18.7943 9.02902C18.7943 9.02904 18.7943 9.02905 18.7943 9.02907C18.7943 9.02908 18.7943 9.0291 18.7943 9.02911C18.7943 9.02913 18.7943 9.02915 18.7943 9.02916C18.7943 9.02918 18.7943 9.02919 18.7943 9.02921C18.7943 9.02922 18.7943 9.02924 18.7943 9.02925C18.7943 9.02927 18.7943 9.02928 18.7943 9.0293C18.7943 9.02931 18.7943 9.02933 18.7943 9.02934C18.7943 9.02936 18.7943 9.02937 18.7943 9.02939C18.7943 9.0294 18.7943 9.02942 18.7943 9.02943C18.7943 9.02945 18.7943 9.02946 18.7943 9.02948C18.7943 9.02949 18.7943 9.02951 18.7943 9.02952C18.7943 9.02954 18.7943 9.02955 18.7943 9.02957C18.7943 9.02958 18.7943 9.0296 18.7943 9.02961C18.7943 9.02963 18.7943 9.02964 18.7943 9.02966C18.7943 9.02967 18.7943 9.02969 18.7943 9.0297C18.7943 9.02972 18.7943 9.02973 18.7943 9.02975C18.7943 9.02977 18.7943 9.02978 18.7943 9.02979C18.7943 9.02981 18.7943 9.02983 18.7943 9.02984C18.7943 9.02985 18.7943 9.02987 18.7943 9.02989C18.7943 9.0299 18.7943 9.02991 18.7943 9.02993C18.7943 9.02995 18.7943 9.02996 18.7943 9.02998C18.7943 9.02999 18.7943 9.03001 18.7943 9.03002C18.7943 9.03004 18.7943 9.03005 18.7943 9.03007C18.7943 9.03008 18.7943 9.0301 18.7943 9.03011C18.7943 9.03013 18.7943 9.03014 18.7943 9.03016C18.7943 9.03017 18.7943 9.03019 18.7943 9.0302C18.7943 9.03022 18.7943 9.03023 18.7943 9.03025C18.7943 9.03026 18.7943 9.03028 18.7943 9.03029C18.7943 9.03031 18.7943 9.03032 18.7943 9.03034C18.7943 9.03035 18.7943 9.03037 18.7943 9.03038C18.7943 9.0304 18.7943 9.03041 18.7943 9.03043C18.7943 9.03044 18.7943 9.03046 18.7943 9.03047C18.7943 9.03049 18.7943 9.0305 18.7943 9.03052C18.7943 9.03053 18.7943 9.03055 18.7943 9.03056C18.7943 9.03058 18.7943 9.03059 18.7943 9.03061C18.7943 9.03062 18.7943 9.03064 18.7943 9.03065C18.7943 9.03067 18.7943 9.03068 18.7943 9.0307C18.7943 9.03071 18.7943 9.03073 18.7943 9.03074C18.7943 9.03076 18.7943 9.03077 18.7943 9.03079C18.7943 9.0308 18.7943 9.03082 18.7943 9.03083C18.7943 9.03084 18.7943 9.03086 18.7943 9.03088C18.7943 9.03089 18.7943 9.0309 18.7943 9.03092C18.7943 9.03093 18.7943 9.03095 18.7943 9.03096C18.7943 9.03098 18.7943 9.03099 18.7943 9.03101C18.7943 9.03102 18.7943 9.03104 18.7943 9.03105C18.7943 9.03107 18.7943 9.03108 18.7943 9.0311C18.7943 9.03111 18.7943 9.03113 18.7943 9.03114C18.7943 9.03116 18.7943 9.03117 18.7943 9.03119C18.7943 9.0312 18.7943 9.03122 18.7943 9.03123C18.7943 9.03125 18.7943 9.03126 18.7943 9.03128C18.7943 9.03129 18.7943 9.03131 18.7943 9.03132C18.7943 9.03134 18.7943 9.03135 18.7943 9.03137C18.7943 9.03138 18.7943 9.0314 18.7943 9.03141C18.7943 9.03143 18.7943 9.03144 18.7943 9.03146C18.7943 9.03147 18.7943 9.03149 18.7943 9.0315C18.7943 9.03152 18.7943 9.03153 18.7943 9.03155C18.7943 9.03156 18.7943 9.03158 18.7943 9.03159C18.7943 9.03161 18.7943 9.03162 18.7943 9.03164C18.7943 9.03165 18.7943 9.03166 18.7943 9.03168C18.7943 9.03169 18.7943 9.03171 18.7943 9.03172C18.7943 9.03174 18.7943 9.03175 18.7943 9.03177C18.7943 9.03178 18.7943 9.0318 18.7943 9.03181C18.7943 9.03183 18.7943 9.03184 18.7943 9.03186C18.7943 9.03187 18.7943 9.03189 18.7943 9.0319C18.7943 9.03192 18.7943 9.03193 18.7943 9.03195C18.7943 9.03196 18.7943 9.03198 18.7943 9.03199C18.7943 9.03201 18.7943 9.03202 18.7943 9.03204C18.7943 9.03205 18.7943 9.03207 18.7943 9.03208C18.7943 9.0321 18.7943 9.03211 18.7943 9.03213C18.7943 9.03214 18.7943 9.03216 18.7943 9.03217C18.7943 9.03218 18.7943 9.0322 18.7943 9.03221C18.7943 9.03223 18.7943 9.03224 18.7943 9.03226C18.7943 9.03227 18.7943 9.03229 18.7943 9.0323C18.7943 9.03232 18.7943 9.03233 18.7943 9.03235C18.7943 9.03236 18.7943 9.03238 18.7943 9.03239C18.7943 9.03241 18.7943 9.03242 18.7943 9.03244C18.7943 9.03245 18.7943 9.03247 18.7943 9.03248C18.7943 9.0325 18.7943 9.03251 18.7943 9.03253C18.7943 9.03254 18.7943 9.03256 18.7943 9.03257C18.7943 9.03259 18.7943 9.0326 18.7943 9.03261C18.7943 9.03263 18.7943 9.03264 18.7943 9.03266C18.7943 9.03267 18.7943 9.03269 18.7943 9.0327C18.7943 9.03272 18.7943 9.03273 18.7943 9.03275C18.7943 9.03276 18.7943 9.03278 18.7943 9.03279C18.7943 9.03281 18.7943 9.03282 18.7943 9.03284C18.7943 9.03285 18.7943 9.03287 18.7943 9.03288C18.7943 9.0329 18.7943 9.03291 18.7943 9.03293C18.7943 9.03294 18.7943 9.03296 18.7943 9.03297C18.7943 9.03298 18.7943 9.033 18.7943 9.03301C18.7943 9.03303 18.7943 9.03304 18.7943 9.03306C18.7943 9.03307 18.7943 9.03309 18.7943 9.0331C18.7943 9.03312 18.7943 9.03313 18.7943 9.03315C18.7943 9.03316 18.7943 9.03318 18.7943 9.03319C18.7943 9.03321 18.7943 9.03322 18.7943 9.03324C18.7943 9.03325 18.7943 9.03327 18.7943 9.03328C18.7943 9.0333 18.7943 9.03331 18.7943 9.03333C18.7943 9.03334 18.7943 9.03335 18.7943 9.03337C18.7943 9.03338 18.7943 9.0334 18.7943 9.03341C18.7943 9.03343 18.7943 9.03344 18.7943 9.03346C18.7943 9.03347 18.7943 9.03349 18.7943 9.0335C18.7943 9.03352 18.7943 9.03353 18.7943 9.03355C18.7943 9.03356 18.7943 9.03358 18.7943 9.03359C18.7943 9.03361 18.7943 9.03362 18.7943 9.03364C18.7943 9.03365 18.7943 9.03366 18.7943 9.03368C18.7943 9.03369 18.7943 9.03371 18.7943 9.03372C18.7943 9.03374 18.7943 9.03375 18.7943 9.03377C18.7943 9.03378 18.7943 9.0338 18.7943 9.03381C18.7943 9.03383 18.7943 9.03384 18.7943 9.03386C18.7943 9.03387 18.7943 9.03389 18.7943 9.0339C18.7943 9.03392 18.7943 9.03393 18.7943 9.03395C18.7943 9.03396 18.7943 9.03397 18.7943 9.03399C18.7943 9.034 18.7943 9.03402 18.7943 9.03403C18.7943 9.03405 18.7943 9.03406 18.7943 9.03408C18.7943 9.03409 18.7943 9.03411 18.7943 9.03412C18.7943 9.03414 18.7943 9.03415 18.7943 9.03417C18.7943 9.03418 18.7943 9.0342 18.7943 9.03421C18.7943 9.03423 18.7943 9.03424 18.7943 9.03426C18.7943 9.03427 18.7943 9.03428 18.7943 9.0343C18.7943 9.03431 18.7943 9.03433 18.7943 9.03434C18.7943 9.03436 18.7943 9.03437 18.7943 9.03439C18.7943 9.0344 18.7943 9.03442 18.7943 9.03443H19.1943ZM11.6701 8.52803V2.04304H11.2701V8.52803H11.6701ZM11.4556 2.24251C13.225 2.371 14.8845 3.18969 16.0667 4.52975L16.3666 4.26513C15.1151 2.84642 13.3582 1.97962 11.4846 1.84357L11.4556 2.24251ZM16.0669 4.53001C17.0579 5.64948 17.6454 7.05916 17.7556 8.54284L18.1545 8.51322C18.0379 6.94336 17.4161 5.45067 16.3664 4.26487L16.0669 4.53001ZM17.9551 8.32803H11.4701V8.72803H17.9551V8.32803Z" fill="white" mask="url(#path-1-outside-1)"/>
</svg>
